…
    ## See spec(...) for full column specifications.

``` r
#look at data
nh
```

    ## # A tibble: 5,000 x 32
    ##       id Gender   Age Race    Education    MaritalStatus RelationshipStat…
    ##    <int> <chr>  <int> <chr>   <chr>        <chr>         <chr>            
    ##  1 62163 male      14 Asian   <NA>         <NA>          <NA>             
    ##  2 62172 female    43 Black   High School  NeverMarried  Single           
    ##  3 62174 male      80 White   College Grad Married       Committed        
    ##  4 62174 male      80 White   College Grad Married       Committed        
    ##  5 62175 male       5 White   <NA>         <NA>          <NA>             
    ##  6 62176 female    34 White   College Grad Married       Committed        
    ##  7 62178 male      80 White   High School  Widowed       Single           
    ##  8 62180 male      35 White   College Grad Married       Committed        
    ##  9 62186 female    17 Black   <NA>         <NA>          <NA>             
    ## 10 62190 female    15 Mexican <NA>         <NA>          <NA>             
    ## # ... with 4,990 more rows, and 25 more variables: Insured <chr>,
    ## #   Income <int>, Poverty <dbl>, HomeRooms <int>, HomeOwn <chr>,
    ## #   Work <chr>, Weight <dbl>, Height <dbl>, BMI <dbl>, Pulse <int>,
    ## #   BPSys <int>, BPDia <int>, Testosterone <dbl>, HDLChol <dbl>,
    ## #   TotChol <dbl>, Diabetes <chr>, DiabetesAge <int>, nPregnancies <int>,
    ## #   nBabies <int>, SleepHrsNight <int>, PhysActive <chr>,
    ## #   PhysActiveDays <int>, AlcoholDay <int>, AlcoholYear <int>,
    ## #   SmokingStatus <chr>
…
We will use the filter function to subset particular **rows**. The first argument to filter is the data frame we are filtering from The second argument is the first condition the resulting data will have to meet to be returned

There are six operators in total for conditions -equal to **==** -not equal to **!=** -greather than **&gt;** -greater than or equal to **&gt;=** -less than **&lt;** -less than or equal to **&lt;=**

And you can chain multiple conditions together with an AND operator **&** or an OR **|** operator

Let's see how it works ...

``` r
# Look at just children
filter(nh, Age < 18)
```

    ## # A tibble: 1,293 x 32
    ##       id Gender   Age Race     Education MaritalStatus RelationshipStatus
    ##    <int> <chr>  <int> <chr>    <chr>     <chr>         <chr>             
    ##  1 62163 male      14 Asian    <NA>      <NA>          <NA>              
    ##  2 62175 male       5 White    <NA>      <NA>          <NA>              
    ##  3 62186 female    17 Black    <NA>      <NA>          <NA>              
    ##  4 62190 female    15 Mexican  <NA>      <NA>          <NA>              
    ##  5 62210 male      15 White    <NA>      <NA>          <NA>              
    ##  6 62219 female     2 Mexican  <NA>      <NA>          <NA>              
    ##  7 62225 female    13 Mexican  <NA>      <NA>          <NA>              
    ##  8 62235 female     2 White    <NA>      <NA>          <NA>              
    ##  9 62241 male       2 Hispanic <NA>      <NA>          <NA>              
    ## 10 62257 female     2 Mexican  <NA>      <NA>          <NA>              
    ## # ... with 1,283 more rows, and 25 more variables: Insured <chr>,
    ## #   Income <int>, Poverty <dbl>, HomeRooms <int>, HomeOwn <chr>,
    ## #   Work <chr>, Weight <dbl>, Height <dbl>, BMI <dbl>, Pulse <int>,
    ## #   BPSys <int>, BPDia <int>, Testosterone <dbl>, HDLChol <dbl>,
    ## #   TotChol <dbl>, Diabetes <chr>, DiabetesAge <int>, nPregnancies <int>,
    ## #   nBabies <int>, SleepHrsNight <int>, PhysActive <chr>,
    ## #   PhysActiveDays <int>, AlcoholDay <int>, AlcoholYear <int>,
    ## #   SmokingStatus <chr>

``` r
length(filter(nh, Age < 18))
```

    ## [1] 32

``` r
# Look at children who are obese (BMI >= 30)
filter(nh, Age < 18 & BMI >= 30)
```

    ## # A tibble: 65 x 32
    ##       id Gender   Age Race    Education MaritalStatus RelationshipStatus
    ##    <int> <chr>  <int> <chr>   <chr>     <chr>         <chr>             
    ##  1 62285 female    17 White   <NA>      <NA>          <NA>              
    ##  2 62285 female    17 White   <NA>      <NA>          <NA>              
    ##  3 62313 male       7 Mexican <NA>      <NA>          <NA>              
    ##  4 62810 female    15 White   <NA>      <NA>          <NA>              
    ##  5 62870 male      13 Mexican <NA>      <NA>          <NA>              
    ##  6 62879 female    14 Black   <NA>      <NA>          <NA>              
    ##  7 62950 female    16 White   <NA>      <NA>          <NA>              
    ##  8 62950 female    16 White   <NA>      <NA>          <NA>              
    ##  9 63072 female    12 White   <NA>      <NA>          <NA>              
    ## 10 63350 male      16 White   <NA>      <NA>          <NA>              
    ## # ... with 55 more rows, and 25 more variables: Insured <chr>,
    ## #   Income <int>, Poverty <dbl>, HomeRooms <int>, HomeOwn <chr>,
    ## #   Work <chr>, Weight <dbl>, Height <dbl>, BMI <dbl>, Pulse <int>,
    ## #   BPSys <int>, BPDia <int>, Testosterone <dbl>, HDLChol <dbl>,
    ## #   TotChol <dbl>, Diabetes <chr>, DiabetesAge <int>, nPregnancies <int>,
    ## #   nBabies <int>, SleepHrsNight <int>, PhysActive <chr>,
    ## #   PhysActiveDays <int>, AlcoholDay <int>, AlcoholYear <int>,
    ## #   SmokingStatus <chr>

------------------------------------------------------------------------

**EXERCISE 3** A. Use `filter()` to find out how many people there are in this dataset who are current smokers (`SmokingStatus == "Current"`)

``` r
filter(nh, SmokingStatus == "Current")
```

    ## # A tibble: 698 x 32
    ##       id Gender   Age Race    Education    MaritalStatus RelationshipStat…
    ##    <int> <chr>  <int> <chr>   <chr>        <chr>         <chr>            
    ##  1 62172 female    43 Black   High School  NeverMarried  Single           
    ##  2 62232 female    42 White   Some College Married       Committed        
    ##  3 62279 male      80 Black   9 - 11th Gr… Widowed       Single           
    ##  4 62279 male      80 Black   9 - 11th Gr… Widowed       Single           
    ##  5 62350 female    43 White   High School  Divorced      Single           
    ##  6 62350 female    43 White   High School  Divorced      Single           
    ##  7 62350 female    43 White   High School  Divorced      Single           
    ##  8 62363 female    44 White   9 - 11th Gr… Divorced      Single           
    ##  9 62397 female    70 Mexican 8th Grade    Widowed       Single           
    ## 10 62418 male      80 White   8th Grade    Widowed       Single           
    ## # ... with 688 more rows, and 25 more variables: Insured <chr>,
    ## #   Income <int>, Poverty <dbl>, HomeRooms <int>, HomeOwn <chr>,
    ## #   Work <chr>, Weight <dbl>, Height <dbl>, BMI <dbl>, Pulse <int>,
    ## #   BPSys <int>, BPDia <int>, Testosterone <dbl>, HDLChol <dbl>,
    ## #   TotChol <dbl>, Diabetes <chr>, DiabetesAge <int>, nPregnancies <int>,
    ## #   nBabies <int>, SleepHrsNight <int>, PhysActive <chr>,
    ## #   PhysActiveDays <int>, AlcoholDay <int>, AlcoholYear <int>,
    ## #   SmokingStatus <chr>
…
### group\_by()

We saw that `summarize()` isn't that useful on its own. Neither is `group_by()` All this does is takes an existing data frame and coverts it into a grouped data frame where operations are performed by group.

``` r
unique(nh$SmokingStatus)
```

    ## [1] NA        "Current" "Never"   "Former"

``` r
group_by(nh, SmokingStatus)
```

    ## # A tibble: 5,000 x 32
    ## # Groups:   SmokingStatus [4]
    ##       id Gender   Age Race    Education    MaritalStatus RelationshipStat…
    ##    <int> <chr>  <int> <chr>   <chr>        <chr>         <chr>            
    ##  1 62163 male      14 Asian   <NA>         <NA>          <NA>             
    ##  2 62172 female    43 Black   High School  NeverMarried  Single           
    ##  3 62174 male      80 White   College Grad Married       Committed        
    ##  4 62174 male      80 White   College Grad Married       Committed        
    ##  5 62175 male       5 White   <NA>         <NA>          <NA>             
    ##  6 62176 female    34 White   College Grad Married       Committed        
    ##  7 62178 male      80 White   High School  Widowed       Single           
    ##  8 62180 male      35 White   College Grad Married       Committed        
    ##  9 62186 female    17 Black   <NA>         <NA>          <NA>             
    ## 10 62190 female    15 Mexican <NA>         <NA>          <NA>             
    ## # ... with 4,990 more rows, and 25 more variables: Insured <chr>,
    ## #   Income <int>, Poverty <dbl>, HomeRooms <int>, HomeOwn <chr>,
    ## #   Work <chr>, Weight <dbl>, Height <dbl>, BMI <dbl>, Pulse <int>,
    ## #   BPSys <int>, BPDia <int>, Testosterone <dbl>, HDLChol <dbl>,
    ## #   TotChol <dbl>, Diabetes <chr>, DiabetesAge <int>, nPregnancies <int>,
    ## #   nBabies <int>, SleepHrsNight <int>, PhysActive <chr>,
    ## #   PhysActiveDays <int>, AlcoholDay <int>, AlcoholYear <int>,
    ## #   SmokingStatus <chr>

The real power comes in where `group_by()` and `summarize()` are used together. First, write the `group_by()` statement. Then wrap the result of that with a call to `summarize()`.

``` r
# Get the mean BMI for each SmokingStatus
group_by(nh, SmokingStatus)
```

    ## # A tibble: 5,000 x 32
    ## # Groups:   SmokingStatus [4]
    ##       id Gender   Age Race    Education    MaritalStatus RelationshipStat…
    ##    <int> <chr>  <int> <chr>   <chr>        <chr>         <chr>            
    ##  1 62163 male      14 Asian   <NA>         <NA>          <NA>             
    ##  2 62172 female    43 Black   High School  NeverMarried  Single           
    ##  3 62174 male      80 White   College Grad Married       Committed        
    ##  4 62174 male      80 White   College Grad Married       Committed        
    ##  5 62175 male       5 White   <NA>         <NA>          <NA>             
    ##  6 62176 female    34 White   College Grad Married       Committed        
    ##  7 62178 male      80 White   High School  Widowed       Single           
    ##  8 62180 male      35 White   College Grad Married       Committed        
    ##  9 62186 female    17 Black   <NA>         <NA>          <NA>             
    ## 10 62190 female    15 Mexican <NA>         <NA>          <NA>             
    ## # ... with 4,990 more rows, and 25 more variables: Insured <chr>,
    ## #   Income <int>, Poverty <dbl>, HomeRooms <int>, HomeOwn <chr>,
    ## #   Work <chr>, Weight <dbl>, Height <dbl>, BMI <dbl>, Pulse <int>,
    ## #   BPSys <int>, BPDia <int>, Testosterone <dbl>, HDLChol <dbl>,
    ## #   TotChol <dbl>, Diabetes <chr>, DiabetesAge <int>, nPregnancies <int>,
    ## #   nBabies <int>, SleepHrsNight <int>, PhysActive <chr>,
    ## #   PhysActiveDays <int>, AlcoholDay <int>, AlcoholYear <int>,
    ## #   SmokingStatus <chr>
…
Let's use it with one of the dplyr verbs.

``` r
filter(nh, Age >= 80)
```

    ## # A tibble: 177 x 32
    ##       id Gender   Age Race    Education    MaritalStatus RelationshipStat…
    ##    <int> <chr>  <int> <chr>   <chr>        <chr>         <chr>            
    ##  1 62174 male      80 White   College Grad Married       Committed        
    ##  2 62174 male      80 White   College Grad Married       Committed        
    ##  3 62178 male      80 White   High School  Widowed       Single           
    ##  4 62256 male      80 White   8th Grade    Married       Committed        
    ##  5 62279 male      80 Black   9 - 11th Gr… Widowed       Single           
    ##  6 62279 male      80 Black   9 - 11th Gr… Widowed       Single           
    ##  7 62366 male      80 White   High School  Married       Committed        
    ##  8 62368 female    80 Hispan… 8th Grade    Widowed       Single           
    ##  9 62418 male      80 White   8th Grade    Widowed       Single           
    ## 10 62418 male      80 White   8th Grade    Widowed       Single           
    ## # ... with 167 more rows, and 25 more variables: Insured <chr>,
    ## #   Income <int>, Poverty <dbl>, HomeRooms <int>, HomeOwn <chr>,
    ## #   Work <chr>, Weight <dbl>, Height <dbl>, BMI <dbl>, Pulse <int>,
    ## #   BPSys <int>, BPDia <int>, Testosterone <dbl>, HDLChol <dbl>,
    ## #   TotChol <dbl>, Diabetes <chr>, DiabetesAge <int>, nPregnancies <int>,
    ## #   nBabies <int>, SleepHrsNight <int>, PhysActive <chr>,
    ## #   PhysActiveDays <int>, AlcoholDay <int>, AlcoholYear <int>,
    ## #   SmokingStatus <chr>

``` r
nh %>% filter(Age >= 80)
```

    ## # A tibble: 177 x 32
    ##       id Gender   Age Race    Education    MaritalStatus RelationshipStat…
    ##    <int> <chr>  <int> <chr>   <chr>        <chr>         <chr>            
    ##  1 62174 male      80 White   College Grad Married       Committed        
    ##  2 62174 male      80 White   College Grad Married       Committed        
    ##  3 62178 male      80 White   High School  Widowed       Single           
    ##  4 62256 male      80 White   8th Grade    Married       Committed        
    ##  5 62279 male      80 Black   9 - 11th Gr… Widowed       Single           
    ##  6 62279 male      80 Black   9 - 11th Gr… Widowed       Single           
    ##  7 62366 male      80 White   High School  Married       Committed        
    ##  8 62368 female    80 Hispan… 8th Grade    Widowed       Single           
    ##  9 62418 male      80 White   8th Grade    Widowed       Single           
    ## 10 62418 male      80 White   8th Grade    Widowed       Single           
    ## # ... with 167 more rows, and 25 more variables: Insured <chr>,
    ## #   Income <int>, Poverty <dbl>, HomeRooms <int>, HomeOwn <chr>,
    ## #   Work <chr>, Weight <dbl>, Height <dbl>, BMI <dbl>, Pulse <int>,
    ## #   BPSys <int>, BPDia <int>, Testosterone <dbl>, HDLChol <dbl>,
    ## #   TotChol <dbl>, Diabetes <chr>, DiabetesAge <int>, nPregnancies <int>,
    ## #   nBabies <int>, SleepHrsNight <int>, PhysActive <chr>,
    ## #   PhysActiveDays <int>, AlcoholDay <int>, AlcoholYear <int>,
    ## #   SmokingStatus <chr>
…
